<?xml version='1.0' encoding='UTF-8'?>
<!-- This file was generated by dvisvgm 2.1.3 -->
<svg height='8.70071pt' version='1.1' viewBox='56.4133 58.049 26.3178 8.70071' width='26.3178pt' xmlns='http://www.w3.org/2000/svg' xmlns:xlink='http://www.w3.org/1999/xlink'>
<defs>
<path d='M4.65056 -3.32354L2.25953 -5.70262C2.11606 -5.84608 2.09215 -5.86999 1.99651 -5.86999C1.87696 -5.86999 1.75741 -5.76239 1.75741 -5.63088C1.75741 -5.5472 1.78132 -5.52329 1.91283 -5.39178L4.30386 -2.98879L1.91283 -0.585803C1.78132 -0.454296 1.75741 -0.430386 1.75741 -0.3467C1.75741 -0.215193 1.87696 -0.107597 1.99651 -0.107597C2.09215 -0.107597 2.11606 -0.131507 2.25953 -0.274969L4.63861 -2.65405L7.11333 -0.179328C7.13724 -0.167372 7.22092 -0.107597 7.29265 -0.107597C7.43611 -0.107597 7.53176 -0.215193 7.53176 -0.3467C7.53176 -0.37061 7.53176 -0.418431 7.49589 -0.478207C7.48394 -0.502117 5.58306 -2.37908 4.98531 -2.98879L7.1731 -5.17659C7.23288 -5.24832 7.4122 -5.40374 7.47198 -5.47547C7.48394 -5.49938 7.53176 -5.5472 7.53176 -5.63088C7.53176 -5.76239 7.43611 -5.86999 7.29265 -5.86999C7.19701 -5.86999 7.14919 -5.82217 7.01768 -5.69066L4.65056 -3.32354Z' id='g0-2'/>
<path d='M5.26027 -2.00847H4.99726C4.96139 -1.80523 4.86575 -1.1477 4.7462 -0.956413C4.66252 -0.848817 3.98107 -0.848817 3.62242 -0.848817H1.41071C1.7335 -1.12379 2.46276 -1.88892 2.7736 -2.17584C4.59078 -3.84956 5.26027 -4.47123 5.26027 -5.65479C5.26027 -7.02964 4.17235 -7.95019 2.78555 -7.95019S0.585803 -6.76663 0.585803 -5.73848C0.585803 -5.12877 1.11183 -5.12877 1.1477 -5.12877C1.39875 -5.12877 1.70959 -5.30809 1.70959 -5.69066C1.70959 -6.0254 1.48244 -6.25255 1.1477 -6.25255C1.0401 -6.25255 1.01619 -6.25255 0.980324 -6.2406C1.20747 -7.05355 1.85305 -7.60349 2.63014 -7.60349C3.64633 -7.60349 4.268 -6.75467 4.268 -5.65479C4.268 -4.63861 3.68219 -3.75392 3.00075 -2.98879L0.585803 -0.286924V0H4.94944L5.26027 -2.00847Z' id='g1-50'/>
</defs>
<g id='page1'>
<use x='56.4133' xlink:href='#g1-50' y='65.7534'/>
<use x='64.9229' xlink:href='#g0-2' y='65.7534'/>
<use x='76.8781' xlink:href='#g1-50' y='65.7534'/>
</g>
</svg>