<?xml version='1.0' encoding='UTF-8'?>
<!-- This file was generated by dvisvgm 2.1.3 -->
<svg height='5.14737pt' version='1.1' viewBox='56.4133 60.6061 5.97062 5.14737' width='5.97062pt' xmlns='http://www.w3.org/2000/svg' xmlns:xlink='http://www.w3.org/1999/xlink'>
<defs>
<path d='M1.51831 -0.968369C2.03238 -1.55417 2.45081 -1.92478 3.04857 -2.46276C3.76588 -3.08443 4.07671 -3.38331 4.24408 -3.56264C5.08095 -4.38755 5.49938 -5.08095 5.49938 -5.17659S5.40374 -5.27223 5.37983 -5.27223C5.29614 -5.27223 5.27223 -5.22441 5.21245 -5.14072C4.91357 -4.62665 4.62665 -4.37559 4.31582 -4.37559C4.06476 -4.37559 3.93325 -4.48319 3.7061 -4.77011C3.45504 -5.06899 3.25181 -5.27223 2.90511 -5.27223C2.03238 -5.27223 1.50635 -4.18431 1.50635 -3.93325C1.50635 -3.89738 1.51831 -3.82565 1.6259 -3.82565C1.72154 -3.82565 1.7335 -3.87347 1.76936 -3.95716C1.9726 -4.43537 2.54645 -4.51905 2.7736 -4.51905C3.02466 -4.51905 3.26376 -4.43537 3.51482 -4.32777C3.96912 -4.13649 4.1604 -4.13649 4.27995 -4.13649C4.36364 -4.13649 4.41146 -4.13649 4.47123 -4.14844C4.07671 -3.68219 3.43113 -3.10834 2.89315 -2.61818L1.68568 -1.50635C0.956413 -0.765131 0.514072 -0.0597758 0.514072 0.0239103C0.514072 0.0956413 0.573848 0.119552 0.645579 0.119552S0.729265 0.107597 0.812951 -0.0358655C1.00423 -0.334745 1.3868 -0.777086 1.82914 -0.777086C2.0802 -0.777086 2.19975 -0.6934 2.43885 -0.394521C2.666 -0.131507 2.86924 0.119552 3.25181 0.119552C4.42341 0.119552 5.0929 -1.39875 5.0929 -1.67372C5.0929 -1.72154 5.08095 -1.79328 4.96139 -1.79328C4.86575 -1.79328 4.8538 -1.74545 4.81793 -1.6259C4.55492 -0.920548 3.84956 -0.633624 3.38331 -0.633624C3.13225 -0.633624 2.89315 -0.71731 2.64209 -0.824907C2.16389 -1.01619 2.03238 -1.01619 1.87696 -1.01619C1.75741 -1.01619 1.6259 -1.01619 1.51831 -0.968369Z' id='g0-122'/>
</defs>
<g id='page1'>
<use x='56.4133' xlink:href='#g0-122' y='65.7534'/>
</g>
</svg>